{
  "data": {
    "lineChartQuery": {
      "menu": [
        "Core Delta Pressure",
        "Electric",
        "Feedwater Temp",
        "RWCU Flow",
        "Rx Power",
        "Rx Pressure",
        "Rx Water Level",
        "Thermal",
        "Total Core Flow",
        "Total FW Flow",
        "Total Steam Flow",
        "Turbine RPM"
      ],
      "data": {
        "Core Delta Pressure": {
          "units": [
            {
              "unit": { "name": "Unit 1", "color": "FFFF54,BEAC03", "id": "4b4334e8-917e-40d9-9624-16297f3fab98" },
              "data": {
                "timestamps": [
                  "2019-06-13T18:34:00.000Z",
                  "2019-06-13T18:38:00.000Z",
                  "2019-06-13T18:43:00.000Z",
                  "2019-06-13T18:47:00.000Z",
                  "2019-06-13T18:52:00.000Z",
                  "2019-06-13T18:56:00.000Z",
                  "2019-06-13T19:01:00.000Z",
                  "2019-06-13T19:05:00.000Z",
                  "2019-06-13T19:10:00.000Z",
                  "2019-06-13T19:14:00.000Z",
                  "2019-06-13T19:18:00.000Z",
                  "2019-06-13T19:23:00.000Z",
                  "2019-06-13T19:27:00.000Z",
                  "2019-06-13T19:32:00.000Z",
                  "2019-06-13T19:36:00.000Z",
                  "2019-06-13T19:40:00.000Z",
                  "2019-06-13T19:45:00.000Z",
                  "2019-06-13T19:49:00.000Z",
                  "2019-06-13T19:54:00.000Z",
                  "2019-06-13T19:58:00.000Z",
                  "2019-06-13T20:03:00.000Z",
                  "2019-06-13T20:07:00.000Z",
                  "2019-06-13T20:12:00.000Z",
                  "2019-06-13T20:16:00.000Z",
                  "2019-06-13T20:21:00.000Z",
                  "2019-06-13T20:25:00.000Z",
                  "2019-06-13T20:29:00.000Z"
                ],
                "data": [
                  17.19,
                  17.01,
                  17.32,
                  17.36,
                  17.38,
                  16.92,
                  17.15,
                  17.26,
                  17.06,
                  17.3,
                  17.21,
                  17.28,
                  17.28,
                  17.24,
                  17.03,
                  17.27,
                  17.26,
                  17.23,
                  17.27,
                  17.09,
                  17.22,
                  17.23,
                  17.27,
                  17.27,
                  17.09,
                  17.03,
                  17.63
                ]
              }
            },
            {
              "unit": { "name": "Unit 2", "color": "9FCE63,62AD01", "id": "c3ad31d4-56a6-421e-97de-3cfefe611787" },
              "data": {
                "timestamps": [
                  "2019-06-13T18:34:00.000Z",
                  "2019-06-13T18:39:00.000Z",
                  "2019-06-13T18:43:00.000Z",
                  "2019-06-13T18:47:00.000Z",
                  "2019-06-13T18:52:00.000Z",
                  "2019-06-13T18:56:00.000Z",
                  "2019-06-13T19:01:00.000Z",
                  "2019-06-13T19:05:00.000Z",
                  "2019-06-13T19:10:00.000Z",
                  "2019-06-13T19:14:00.000Z",
                  "2019-06-13T19:18:00.000Z",
                  "2019-06-13T19:23:00.000Z",
                  "2019-06-13T19:27:00.000Z",
                  "2019-06-13T19:32:00.000Z",
                  "2019-06-13T19:36:00.000Z",
                  "2019-06-13T19:41:00.000Z",
                  "2019-06-13T19:45:00.000Z",
                  "2019-06-13T19:49:00.000Z",
                  "2019-06-13T19:54:00.000Z",
                  "2019-06-13T19:58:00.000Z",
                  "2019-06-13T20:03:00.000Z",
                  "2019-06-13T20:07:00.000Z",
                  "2019-06-13T20:12:00.000Z",
                  "2019-06-13T20:16:00.000Z",
                  "2019-06-13T20:21:00.000Z",
                  "2019-06-13T20:25:00.000Z",
                  "2019-06-13T20:29:00.000Z"
                ],
                "data": [
                  16.96,
                  17.02,
                  17.11,
                  17.15,
                  16.9,
                  17.23,
                  17.17,
                  17.05,
                  17.21,
                  17.15,
                  17.41,
                  17.36,
                  17.13,
                  17.2,
                  17.18,
                  17.2,
                  17.35,
                  17.19,
                  17.41,
                  17.05,
                  17.15,
                  17.27,
                  17.19,
                  17.4,
                  17.15,
                  17.23,
                  17.35
                ]
              }
            }
          ],
          "type": "unit",
          "metric": "CORE_DELTA",
          "uom": "PSID"
        },
        "Electric": {
          "units": [
            {
              "unit": { "name": "Unit 1", "color": "FFFF54,BEAC03", "id": "4b4334e8-917e-40d9-9624-16297f3fab98" },
              "data": {
                "timestamps": [
                  "2019-06-13T18:34:00.000Z",
                  "2019-06-13T18:38:00.000Z",
                  "2019-06-13T18:43:00.000Z",
                  "2019-06-13T18:47:00.000Z",
                  "2019-06-13T18:52:00.000Z",
                  "2019-06-13T18:56:00.000Z",
                  "2019-06-13T19:01:00.000Z",
                  "2019-06-13T19:05:00.000Z",
                  "2019-06-13T19:10:00.000Z",
                  "2019-06-13T19:14:00.000Z",
                  "2019-06-13T19:18:00.000Z",
                  "2019-06-13T19:23:00.000Z",
                  "2019-06-13T19:27:00.000Z",
                  "2019-06-13T19:32:00.000Z",
                  "2019-06-13T19:36:00.000Z",
                  "2019-06-13T19:40:00.000Z",
                  "2019-06-13T19:45:00.000Z",
                  "2019-06-13T19:49:00.000Z",
                  "2019-06-13T19:54:00.000Z",
                  "2019-06-13T19:58:00.000Z",
                  "2019-06-13T20:03:00.000Z",
                  "2019-06-13T20:07:00.000Z",
                  "2019-06-13T20:12:00.000Z",
                  "2019-06-13T20:16:00.000Z",
                  "2019-06-13T20:21:00.000Z",
                  "2019-06-13T20:25:00.000Z",
                  "2019-06-13T20:29:00.000Z"
                ],
                "data": [
                  1191.54,
                  1192.51,
                  1192.86,
                  1188.89,
                  1192.01,
                  1191.11,
                  1191.16,
                  1192.62,
                  1191.19,
                  1191.1,
                  1192.91,
                  1190.66,
                  1190.19,
                  1192.79,
                  1191.51,
                  1189.01,
                  1193.03,
                  1192.08,
                  1192.66,
                  1192.77,
                  1193.08,
                  1192.45,
                  1192.31,
                  1191.91,
                  1192.53,
                  1191.22,
                  1190.82
                ]
              }
            },
            {
              "unit": { "name": "Unit 2", "color": "9FCE63,62AD01", "id": "c3ad31d4-56a6-421e-97de-3cfefe611787" },
              "data": {
                "timestamps": [
                  "2019-06-13T18:34:00.000Z",
                  "2019-06-13T18:39:00.000Z",
                  "2019-06-13T18:43:00.000Z",
                  "2019-06-13T18:47:00.000Z",
                  "2019-06-13T18:52:00.000Z",
                  "2019-06-13T18:56:00.000Z",
                  "2019-06-13T19:01:00.000Z",
                  "2019-06-13T19:05:00.000Z",
                  "2019-06-13T19:10:00.000Z",
                  "2019-06-13T19:14:00.000Z",
                  "2019-06-13T19:18:00.000Z",
                  "2019-06-13T19:23:00.000Z",
                  "2019-06-13T19:27:00.000Z",
                  "2019-06-13T19:32:00.000Z",
                  "2019-06-13T19:36:00.000Z",
                  "2019-06-13T19:41:00.000Z",
                  "2019-06-13T19:45:00.000Z",
                  "2019-06-13T19:49:00.000Z",
                  "2019-06-13T19:54:00.000Z",
                  "2019-06-13T19:58:00.000Z",
                  "2019-06-13T20:03:00.000Z",
                  "2019-06-13T20:07:00.000Z",
                  "2019-06-13T20:12:00.000Z",
                  "2019-06-13T20:16:00.000Z",
                  "2019-06-13T20:21:00.000Z",
                  "2019-06-13T20:25:00.000Z",
                  "2019-06-13T20:29:00.000Z"
                ],
                "data": [
                  1197.25,
                  1200.04,
                  1197.47,
                  1199.76,
                  1199.68,
                  1200.08,
                  1201.76,
                  1197.35,
                  1198.03,
                  1200.12,
                  1200.25,
                  1199.65,
                  1196.44,
                  1199.37,
                  1199.83,
                  1199.96,
                  1198.29,
                  1196.78,
                  1201.25,
                  1199.89,
                  1197.87,
                  1198.51,
                  1199.35,
                  1198.21,
                  1198.5,
                  1199.02,
                  1199.51
                ]
              }
            }
          ],
          "type": "unit",
          "metric": "RX_POWER",
          "uom": "MWE"
        },
        "Feedwater Temp": {
          "units": [
            {
              "unit": { "name": "Unit 1", "color": "FFFF54,BEAC03", "id": "4b4334e8-917e-40d9-9624-16297f3fab98" },
              "data": {
                "timestamps": [
                  "2019-06-13T18:34:00.000Z",
                  "2019-06-13T18:38:00.000Z",
                  "2019-06-13T18:43:00.000Z",
                  "2019-06-13T18:47:00.000Z",
                  "2019-06-13T18:52:00.000Z",
                  "2019-06-13T18:56:00.000Z",
                  "2019-06-13T19:01:00.000Z",
                  "2019-06-13T19:05:00.000Z",
                  "2019-06-13T19:10:00.000Z",
                  "2019-06-13T19:14:00.000Z",
                  "2019-06-13T19:18:00.000Z",
                  "2019-06-13T19:23:00.000Z",
                  "2019-06-13T19:27:00.000Z",
                  "2019-06-13T19:32:00.000Z",
                  "2019-06-13T19:36:00.000Z",
                  "2019-06-13T19:40:00.000Z",
                  "2019-06-13T19:45:00.000Z",
                  "2019-06-13T19:49:00.000Z",
                  "2019-06-13T19:54:00.000Z",
                  "2019-06-13T19:58:00.000Z",
                  "2019-06-13T20:03:00.000Z",
                  "2019-06-13T20:07:00.000Z",
                  "2019-06-13T20:12:00.000Z",
                  "2019-06-13T20:16:00.000Z",
                  "2019-06-13T20:21:00.000Z",
                  "2019-06-13T20:25:00.000Z",
                  "2019-06-13T20:29:00.000Z"
                ],
                "data": [
                  423.41,
                  423.48,
                  423.38,
                  423.35,
                  423.43,
                  423.42,
                  423.44,
                  423.4,
                  423.39,
                  423.42,
                  423.38,
                  423.43,
                  423.4,
                  423.46,
                  423.46,
                  423.37,
                  423.45,
                  423.38,
                  423.45,
                  423.49,
                  423.37,
                  423.4,
                  423.48,
                  423.37,
                  423.47,
                  423.38,
                  423.43
                ]
              }
            }
          ],
          "type": "unit",
          "metric": "WCS_TEMP",
          "uom": "DEG F."
        },
        "RWCU Flow": {
          "units": [
            {
              "unit": { "name": "Unit 1", "color": "FFFF54,BEAC03", "id": "4b4334e8-917e-40d9-9624-16297f3fab98" },
              "data": {
                "timestamps": [
                  "2019-06-13T18:34:00.000Z",
                  "2019-06-13T18:38:00.000Z",
                  "2019-06-13T18:43:00.000Z",
                  "2019-06-13T18:47:00.000Z",
                  "2019-06-13T18:52:00.000Z",
                  "2019-06-13T18:56:00.000Z",
                  "2019-06-13T19:01:00.000Z",
                  "2019-06-13T19:05:00.000Z",
                  "2019-06-13T19:10:00.000Z",
                  "2019-06-13T19:14:00.000Z",
                  "2019-06-13T19:18:00.000Z",
                  "2019-06-13T19:23:00.000Z",
                  "2019-06-13T19:27:00.000Z",
                  "2019-06-13T19:32:00.000Z",
                  "2019-06-13T19:36:00.000Z",
                  "2019-06-13T19:40:00.000Z",
                  "2019-06-13T19:45:00.000Z",
                  "2019-06-13T19:49:00.000Z",
                  "2019-06-13T19:54:00.000Z",
                  "2019-06-13T19:58:00.000Z",
                  "2019-06-13T20:03:00.000Z",
                  "2019-06-13T20:07:00.000Z",
                  "2019-06-13T20:12:00.000Z",
                  "2019-06-13T20:16:00.000Z",
                  "2019-06-13T20:21:00.000Z",
                  "2019-06-13T20:25:00.000Z",
                  "2019-06-13T20:29:00.000Z"
                ],
                "data": [
                  321.92,
                  321.65,
                  321.05,
                  321.67,
                  321.12,
                  321.06,
                  322.57,
                  320.96,
                  321.59,
                  321.2,
                  321.54,
                  321.81,
                  321.41,
                  322.06,
                  321.74,
                  322.08,
                  320.87,
                  322.45,
                  322.01,
                  322.13,
                  321.82,
                  322.17,
                  322.18,
                  322.01,
                  321.63,
                  321.49,
                  321.35
                ]
              }
            },
            {
              "unit": { "name": "Unit 2", "color": "9FCE63,62AD01", "id": "c3ad31d4-56a6-421e-97de-3cfefe611787" },
              "data": {
                "timestamps": [
                  "2019-06-13T18:34:00.000Z",
                  "2019-06-13T18:39:00.000Z",
                  "2019-06-13T18:43:00.000Z",
                  "2019-06-13T18:47:00.000Z",
                  "2019-06-13T18:52:00.000Z",
                  "2019-06-13T18:56:00.000Z",
                  "2019-06-13T19:01:00.000Z",
                  "2019-06-13T19:05:00.000Z",
                  "2019-06-13T19:10:00.000Z",
                  "2019-06-13T19:14:00.000Z",
                  "2019-06-13T19:18:00.000Z",
                  "2019-06-13T19:23:00.000Z",
                  "2019-06-13T19:27:00.000Z",
                  "2019-06-13T19:32:00.000Z",
                  "2019-06-13T19:36:00.000Z",
                  "2019-06-13T19:41:00.000Z",
                  "2019-06-13T19:45:00.000Z",
                  "2019-06-13T19:49:00.000Z",
                  "2019-06-13T19:54:00.000Z",
                  "2019-06-13T19:58:00.000Z",
                  "2019-06-13T20:03:00.000Z",
                  "2019-06-13T20:07:00.000Z",
                  "2019-06-13T20:12:00.000Z",
                  "2019-06-13T20:16:00.000Z",
                  "2019-06-13T20:21:00.000Z",
                  "2019-06-13T20:25:00.000Z",
                  "2019-06-13T20:29:00.000Z"
                ],
                "data": [
                  312.23,
                  312.58,
                  312.82,
                  313.14,
                  312.88,
                  312.7,
                  312.2,
                  313.21,
                  312.27,
                  314.01,
                  312.34,
                  313.19,
                  312.39,
                  313.01,
                  312.74,
                  312.17,
                  312.54,
                  311.76,
                  312.88,
                  313.03,
                  312.61,
                  313.32,
                  312.49,
                  312.47,
                  312.67,
                  312.83,
                  312.76
                ]
              }
            }
          ],
          "type": "unit",
          "metric": "RWCU_FLOW",
          "uom": "KLBM/HR"
        },
        "Rx Power": {
          "units": [
            {
              "unit": { "name": "Unit 1", "color": "FFFF54,BEAC03", "id": "4b4334e8-917e-40d9-9624-16297f3fab98" },
              "data": { "timestamps": [], "data": [] }
            },
            {
              "unit": { "name": "Unit 2", "color": "9FCE63,62AD01", "id": "c3ad31d4-56a6-421e-97de-3cfefe611787" },
              "data": { "timestamps": [], "data": [] }
            }
          ],
          "type": "unit",
          "metric": "RX_POWER_PC",
          "uom": "Percent"
        },
        "Rx Pressure": {
          "units": [
            {
              "unit": { "name": "Unit 1", "color": "FFFF54,BEAC03", "id": "4b4334e8-917e-40d9-9624-16297f3fab98" },
              "data": {
                "timestamps": [
                  "2019-06-13T18:34:00.000Z",
                  "2019-06-13T18:38:00.000Z",
                  "2019-06-13T18:43:00.000Z",
                  "2019-06-13T18:47:00.000Z",
                  "2019-06-13T18:52:00.000Z",
                  "2019-06-13T18:56:00.000Z",
                  "2019-06-13T19:01:00.000Z",
                  "2019-06-13T19:05:00.000Z",
                  "2019-06-13T19:10:00.000Z",
                  "2019-06-13T19:14:00.000Z",
                  "2019-06-13T19:18:00.000Z",
                  "2019-06-13T19:23:00.000Z",
                  "2019-06-13T19:27:00.000Z",
                  "2019-06-13T19:32:00.000Z",
                  "2019-06-13T19:36:00.000Z",
                  "2019-06-13T19:40:00.000Z",
                  "2019-06-13T19:45:00.000Z",
                  "2019-06-13T19:49:00.000Z",
                  "2019-06-13T19:54:00.000Z",
                  "2019-06-13T19:58:00.000Z",
                  "2019-06-13T20:03:00.000Z",
                  "2019-06-13T20:07:00.000Z",
                  "2019-06-13T20:12:00.000Z",
                  "2019-06-13T20:16:00.000Z",
                  "2019-06-13T20:21:00.000Z",
                  "2019-06-13T20:25:00.000Z",
                  "2019-06-13T20:29:00.000Z"
                ],
                "data": [
                  1017.97,
                  1018.03,
                  1018.08,
                  1017.81,
                  1018.03,
                  1017.86,
                  1017.92,
                  1017.96,
                  1017.82,
                  1017.86,
                  1017.94,
                  1017.87,
                  1017.89,
                  1018,
                  1017.97,
                  1017.81,
                  1018.02,
                  1017.97,
                  1018.02,
                  1017.99,
                  1018.03,
                  1017.97,
                  1017.96,
                  1017.99,
                  1017.98,
                  1017.94,
                  1017.89
                ]
              }
            },
            {
              "unit": { "name": "Unit 2", "color": "9FCE63,62AD01", "id": "c3ad31d4-56a6-421e-97de-3cfefe611787" },
              "data": {
                "timestamps": [
                  "2019-06-13T18:34:00.000Z",
                  "2019-06-13T18:39:00.000Z",
                  "2019-06-13T18:43:00.000Z",
                  "2019-06-13T18:47:00.000Z",
                  "2019-06-13T18:52:00.000Z",
                  "2019-06-13T18:56:00.000Z",
                  "2019-06-13T19:01:00.000Z",
                  "2019-06-13T19:05:00.000Z",
                  "2019-06-13T19:10:00.000Z",
                  "2019-06-13T19:14:00.000Z",
                  "2019-06-13T19:18:00.000Z",
                  "2019-06-13T19:23:00.000Z",
                  "2019-06-13T19:27:00.000Z",
                  "2019-06-13T19:32:00.000Z",
                  "2019-06-13T19:36:00.000Z",
                  "2019-06-13T19:40:00.000Z",
                  "2019-06-13T19:45:00.000Z",
                  "2019-06-13T19:49:00.000Z",
                  "2019-06-13T19:54:00.000Z",
                  "2019-06-13T19:58:00.000Z",
                  "2019-06-13T20:03:00.000Z",
                  "2019-06-13T20:07:00.000Z",
                  "2019-06-13T20:12:00.000Z",
                  "2019-06-13T20:16:00.000Z",
                  "2019-06-13T20:21:00.000Z",
                  "2019-06-13T20:25:00.000Z",
                  "2019-06-13T20:29:00.000Z"
                ],
                "data": [
                  1017.1,
                  1017.16,
                  1017.06,
                  1017.21,
                  1017.19,
                  1017.18,
                  1017.29,
                  1017.06,
                  1017.14,
                  1017.22,
                  1017.21,
                  1017.14,
                  1016.98,
                  1017.18,
                  1017.19,
                  1017.17,
                  1017.1,
                  1016.97,
                  1017.22,
                  1017.12,
                  1017.06,
                  1017.11,
                  1017.14,
                  1017.09,
                  1017.05,
                  1017.13,
                  1017.22
                ]
              }
            }
          ],
          "type": "unit",
          "metric": "RX_PRESSURE",
          "uom": "MWE"
        },
        "Rx Water Level": {
          "units": [
            {
              "unit": { "name": "Unit 1", "color": "FFFF54,BEAC03", "id": "4b4334e8-917e-40d9-9624-16297f3fab98" },
              "data": {
                "timestamps": [
                  "2019-06-13T18:34:00.000Z",
                  "2019-06-13T18:38:00.000Z",
                  "2019-06-13T18:43:00.000Z",
                  "2019-06-13T18:47:00.000Z",
                  "2019-06-13T18:52:00.000Z",
                  "2019-06-13T18:56:00.000Z",
                  "2019-06-13T19:01:00.000Z",
                  "2019-06-13T19:05:00.000Z",
                  "2019-06-13T19:10:00.000Z",
                  "2019-06-13T19:14:00.000Z",
                  "2019-06-13T19:18:00.000Z",
                  "2019-06-13T19:23:00.000Z",
                  "2019-06-13T19:27:00.000Z",
                  "2019-06-13T19:32:00.000Z",
                  "2019-06-13T19:36:00.000Z",
                  "2019-06-13T19:40:00.000Z",
                  "2019-06-13T19:45:00.000Z",
                  "2019-06-13T19:49:00.000Z",
                  "2019-06-13T19:54:00.000Z",
                  "2019-06-13T19:58:00.000Z",
                  "2019-06-13T20:03:00.000Z",
                  "2019-06-13T20:07:00.000Z",
                  "2019-06-13T20:12:00.000Z",
                  "2019-06-13T20:16:00.000Z",
                  "2019-06-13T20:21:00.000Z",
                  "2019-06-13T20:25:00.000Z",
                  "2019-06-13T20:29:00.000Z"
                ],
                "data": [
                  35.67,
                  35.94,
                  35.6,
                  35.59,
                  36.17,
                  35.02,
                  36.95,
                  35.2,
                  36.48,
                  35.65,
                  35.57,
                  35.61,
                  35.28,
                  36.32,
                  35.91,
                  35.85,
                  35.57,
                  35.72,
                  35.74,
                  36.17,
                  35.76,
                  35.85,
                  35.84,
                  35.84,
                  35.48,
                  35.75,
                  35.57
                ]
              }
            }
          ],
          "type": "unit",
          "metric": "RX_LEVEL",
          "uom": "inches"
        },
        "Thermal": {
          "units": [
            {
              "unit": { "name": "Unit 1", "color": "FFFF54,BEAC03", "id": "4b4334e8-917e-40d9-9624-16297f3fab98" },
              "data": {
                "timestamps": [
                  "2019-06-13T18:34:00.000Z",
                  "2019-06-13T18:38:00.000Z",
                  "2019-06-13T18:43:00.000Z",
                  "2019-06-13T18:47:00.000Z",
                  "2019-06-13T18:52:00.000Z",
                  "2019-06-13T18:56:00.000Z",
                  "2019-06-13T19:01:00.000Z",
                  "2019-06-13T19:05:00.000Z",
                  "2019-06-13T19:10:00.000Z",
                  "2019-06-13T19:14:00.000Z",
                  "2019-06-13T19:18:00.000Z",
                  "2019-06-13T19:23:00.000Z",
                  "2019-06-13T19:27:00.000Z",
                  "2019-06-13T19:32:00.000Z",
                  "2019-06-13T19:36:00.000Z",
                  "2019-06-13T19:40:00.000Z",
                  "2019-06-13T19:45:00.000Z",
                  "2019-06-13T19:49:00.000Z",
                  "2019-06-13T19:54:00.000Z",
                  "2019-06-13T19:58:00.000Z",
                  "2019-06-13T20:03:00.000Z",
                  "2019-06-13T20:07:00.000Z",
                  "2019-06-13T20:12:00.000Z",
                  "2019-06-13T20:16:00.000Z",
                  "2019-06-13T20:21:00.000Z",
                  "2019-06-13T20:25:00.000Z",
                  "2019-06-13T20:29:00.000Z"
                ],
                "data": [
                  3549.43,
                  3541.38,
                  3553.28,
                  3543.95,
                  3562.06,
                  3539.9,
                  3534.58,
                  3532.65,
                  3534.54,
                  3545.84,
                  3530.75,
                  3544.7,
                  3544.21,
                  3544.9,
                  3542.27,
                  3543.06,
                  3549.34,
                  3549.68,
                  3557.44,
                  3538.73,
                  3543.61,
                  3545.48,
                  3541.84,
                  3547.43,
                  3561.85,
                  3537.93,
                  3533.54
                ]
              }
            },
            {
              "unit": { "name": "Unit 2", "color": "9FCE63,62AD01", "id": "c3ad31d4-56a6-421e-97de-3cfefe611787" },
              "data": {
                "timestamps": [
                  "2019-06-13T18:34:00.000Z",
                  "2019-06-13T18:39:00.000Z",
                  "2019-06-13T18:43:00.000Z",
                  "2019-06-13T18:47:00.000Z",
                  "2019-06-13T18:52:00.000Z",
                  "2019-06-13T18:56:00.000Z",
                  "2019-06-13T19:01:00.000Z",
                  "2019-06-13T19:05:00.000Z",
                  "2019-06-13T19:10:00.000Z",
                  "2019-06-13T19:14:00.000Z",
                  "2019-06-13T19:18:00.000Z",
                  "2019-06-13T19:23:00.000Z",
                  "2019-06-13T19:27:00.000Z",
                  "2019-06-13T19:32:00.000Z",
                  "2019-06-13T19:36:00.000Z",
                  "2019-06-13T19:41:00.000Z",
                  "2019-06-13T19:45:00.000Z",
                  "2019-06-13T19:49:00.000Z",
                  "2019-06-13T19:54:00.000Z",
                  "2019-06-13T19:58:00.000Z",
                  "2019-06-13T20:03:00.000Z",
                  "2019-06-13T20:07:00.000Z",
                  "2019-06-13T20:12:00.000Z",
                  "2019-06-13T20:16:00.000Z",
                  "2019-06-13T20:21:00.000Z",
                  "2019-06-13T20:25:00.000Z",
                  "2019-06-13T20:29:00.000Z"
                ],
                "data": [
                  3556.64,
                  3567.72,
                  3558.16,
                  3561.62,
                  3556.93,
                  3554.5,
                  3568.81,
                  3553.37,
                  3557.85,
                  3565.65,
                  3566.72,
                  3560.62,
                  3547.01,
                  3563.4,
                  3560.61,
                  3560.89,
                  3557.07,
                  3547.16,
                  3563.63,
                  3555.64,
                  3551.11,
                  3563.12,
                  3562.76,
                  3548.23,
                  3557.98,
                  3558.96,
                  3558.42
                ]
              }
            }
          ],
          "type": "unit",
          "metric": "RX_THERMAL_POWER",
          "uom": "MWTH"
        },
        "Total Core Flow": {
          "units": [
            {
              "unit": { "name": "Unit 1", "color": "FFFF54,BEAC03", "id": "4b4334e8-917e-40d9-9624-16297f3fab98" },
              "data": {
                "timestamps": [
                  "2019-06-13T18:34:00.000Z",
                  "2019-06-13T18:38:00.000Z",
                  "2019-06-13T18:43:00.000Z",
                  "2019-06-13T18:47:00.000Z",
                  "2019-06-13T18:52:00.000Z",
                  "2019-06-13T18:56:00.000Z",
                  "2019-06-13T19:01:00.000Z",
                  "2019-06-13T19:05:00.000Z",
                  "2019-06-13T19:10:00.000Z",
                  "2019-06-13T19:14:00.000Z",
                  "2019-06-13T19:18:00.000Z",
                  "2019-06-13T19:23:00.000Z",
                  "2019-06-13T19:27:00.000Z",
                  "2019-06-13T19:32:00.000Z",
                  "2019-06-13T19:36:00.000Z",
                  "2019-06-13T19:40:00.000Z",
                  "2019-06-13T19:45:00.000Z",
                  "2019-06-13T19:49:00.000Z",
                  "2019-06-13T19:54:00.000Z",
                  "2019-06-13T19:58:00.000Z",
                  "2019-06-13T20:03:00.000Z",
                  "2019-06-13T20:07:00.000Z",
                  "2019-06-13T20:12:00.000Z",
                  "2019-06-13T20:16:00.000Z",
                  "2019-06-13T20:21:00.000Z",
                  "2019-06-13T20:25:00.000Z",
                  "2019-06-13T20:29:00.000Z"
                ],
                "data": [
                  102.05,
                  101.02,
                  102.27,
                  101.13,
                  101.59,
                  101.64,
                  101.11,
                  101.5,
                  100.75,
                  101.36,
                  101.14,
                  101.66,
                  101.57,
                  100.86,
                  100.88,
                  102.13,
                  101.36,
                  101.63,
                  100.93,
                  100.81,
                  101.08,
                  101.95,
                  101.58,
                  101.79,
                  101.14,
                  100.64,
                  102.28
                ]
              }
            },
            {
              "unit": { "name": "Unit 2", "color": "9FCE63,62AD01", "id": "c3ad31d4-56a6-421e-97de-3cfefe611787" },
              "data": {
                "timestamps": [
                  "2019-06-13T18:34:00.000Z",
                  "2019-06-13T18:39:00.000Z",
                  "2019-06-13T18:43:00.000Z",
                  "2019-06-13T18:47:00.000Z",
                  "2019-06-13T18:52:00.000Z",
                  "2019-06-13T18:56:00.000Z",
                  "2019-06-13T19:01:00.000Z",
                  "2019-06-13T19:05:00.000Z",
                  "2019-06-13T19:10:00.000Z",
                  "2019-06-13T19:14:00.000Z",
                  "2019-06-13T19:18:00.000Z",
                  "2019-06-13T19:23:00.000Z",
                  "2019-06-13T19:27:00.000Z",
                  "2019-06-13T19:32:00.000Z",
                  "2019-06-13T19:36:00.000Z",
                  "2019-06-13T19:40:00.000Z",
                  "2019-06-13T19:45:00.000Z",
                  "2019-06-13T19:49:00.000Z",
                  "2019-06-13T19:54:00.000Z",
                  "2019-06-13T19:58:00.000Z",
                  "2019-06-13T20:03:00.000Z",
                  "2019-06-13T20:07:00.000Z",
                  "2019-06-13T20:12:00.000Z",
                  "2019-06-13T20:16:00.000Z",
                  "2019-06-13T20:20:00.000Z",
                  "2019-06-13T20:25:00.000Z",
                  "2019-06-13T20:29:00.000Z"
                ],
                "data": [
                  101.8,
                  102.11,
                  102.32,
                  102.05,
                  100.91,
                  102.26,
                  102.06,
                  101.74,
                  102.06,
                  102.13,
                  102.88,
                  103.22,
                  101.94,
                  102.17,
                  102.4,
                  102.46,
                  102.58,
                  102.17,
                  103.22,
                  101.94,
                  102.66,
                  101.64,
                  102.39,
                  103.06,
                  102.6,
                  102.55,
                  103.31
                ]
              }
            }
          ],
          "type": "unit",
          "metric": "TOTAL_CORE_FLOW",
          "uom": "KLBS/H"
        },
        "Total FW Flow": {
          "units": [
            {
              "unit": { "name": "Unit 1", "color": "FFFF54,BEAC03", "id": "4b4334e8-917e-40d9-9624-16297f3fab98" },
              "data": {
                "timestamps": [
                  "2019-06-13T18:34:00.000Z",
                  "2019-06-13T18:38:00.000Z",
                  "2019-06-13T18:43:00.000Z",
                  "2019-06-13T18:47:00.000Z",
                  "2019-06-13T18:52:00.000Z",
                  "2019-06-13T18:56:00.000Z",
                  "2019-06-13T19:01:00.000Z",
                  "2019-06-13T19:05:00.000Z",
                  "2019-06-13T19:10:00.000Z",
                  "2019-06-13T19:14:00.000Z",
                  "2019-06-13T19:18:00.000Z",
                  "2019-06-13T19:23:00.000Z",
                  "2019-06-13T19:27:00.000Z",
                  "2019-06-13T19:32:00.000Z",
                  "2019-06-13T19:36:00.000Z",
                  "2019-06-13T19:40:00.000Z",
                  "2019-06-13T19:45:00.000Z",
                  "2019-06-13T19:49:00.000Z",
                  "2019-06-13T19:54:00.000Z",
                  "2019-06-13T19:58:00.000Z",
                  "2019-06-13T20:03:00.000Z",
                  "2019-06-13T20:07:00.000Z",
                  "2019-06-13T20:12:00.000Z",
                  "2019-06-13T20:16:00.000Z",
                  "2019-06-13T20:21:00.000Z",
                  "2019-06-13T20:25:00.000Z",
                  "2019-06-13T20:29:00.000Z"
                ],
                "data": [
                  15.31,
                  15.33,
                  15.3,
                  15.32,
                  15.43,
                  15.47,
                  15.08,
                  15.51,
                  15.24,
                  15.39,
                  15.25,
                  15.27,
                  15.43,
                  15.23,
                  15.27,
                  15.26,
                  15.4,
                  15.13,
                  15.22,
                  15.21,
                  15.32,
                  15.14,
                  15.22,
                  15.25,
                  15.26,
                  15.32,
                  15.45
                ]
              }
            },
            {
              "unit": { "name": "Unit 2", "color": "9FCE63,62AD01", "id": "c3ad31d4-56a6-421e-97de-3cfefe611787" },
              "data": {
                "timestamps": [
                  "2019-06-13T18:34:00.000Z",
                  "2019-06-13T18:39:00.000Z",
                  "2019-06-13T18:43:00.000Z",
                  "2019-06-13T18:47:00.000Z",
                  "2019-06-13T18:52:00.000Z",
                  "2019-06-13T18:56:00.000Z",
                  "2019-06-13T19:01:00.000Z",
                  "2019-06-13T19:05:00.000Z",
                  "2019-06-13T19:10:00.000Z",
                  "2019-06-13T19:14:00.000Z",
                  "2019-06-13T19:18:00.000Z",
                  "2019-06-13T19:23:00.000Z",
                  "2019-06-13T19:27:00.000Z",
                  "2019-06-13T19:32:00.000Z",
                  "2019-06-13T19:36:00.000Z",
                  "2019-06-13T19:41:00.000Z",
                  "2019-06-13T19:45:00.000Z",
                  "2019-06-13T19:49:00.000Z",
                  "2019-06-13T19:54:00.000Z",
                  "2019-06-13T19:58:00.000Z",
                  "2019-06-13T20:03:00.000Z",
                  "2019-06-13T20:07:00.000Z",
                  "2019-06-13T20:12:00.000Z",
                  "2019-06-13T20:16:00.000Z",
                  "2019-06-13T20:21:00.000Z",
                  "2019-06-13T20:25:00.000Z",
                  "2019-06-13T20:29:00.000Z"
                ],
                "data": [
                  15.19,
                  15.17,
                  15.15,
                  15.2,
                  15.26,
                  15.39,
                  15.31,
                  15.26,
                  15.34,
                  15.1,
                  15.31,
                  15.22,
                  15.28,
                  15.22,
                  15.22,
                  15.16,
                  15.23,
                  15.29,
                  15.24,
                  15.21,
                  15.15,
                  15.17,
                  15.32,
                  15.29,
                  15.25,
                  15.25,
                  15.3
                ]
              }
            }
          ],
          "type": "unit",
          "metric": "TOTAL_FW_FLOW",
          "uom": "KLBM/HR"
        },
        "Total Steam Flow": {
          "units": [
            {
              "unit": { "name": "Unit 1", "color": "FFFF54,BEAC03", "id": "4b4334e8-917e-40d9-9624-16297f3fab98" },
              "data": { "timestamps": [], "data": [] }
            },
            {
              "unit": { "name": "Unit 2", "color": "9FCE63,62AD01", "id": "c3ad31d4-56a6-421e-97de-3cfefe611787" },
              "data": { "timestamps": [], "data": [] }
            }
          ],
          "type": "unit",
          "metric": "TOTAL_STEAM_FLOW",
          "uom": "PSID"
        },
        "Turbine RPM": {
          "units": [
            {
              "unit": { "name": "Unit 1", "color": "FFFF54,BEAC03", "id": "4b4334e8-917e-40d9-9624-16297f3fab98" },
              "data": {
                "timestamps": [
                  "2019-06-13T18:34:00.000Z",
                  "2019-06-13T18:38:00.000Z",
                  "2019-06-13T18:43:00.000Z",
                  "2019-06-13T18:47:00.000Z",
                  "2019-06-13T18:52:00.000Z",
                  "2019-06-13T18:56:00.000Z",
                  "2019-06-13T19:01:00.000Z",
                  "2019-06-13T19:05:00.000Z",
                  "2019-06-13T19:10:00.000Z",
                  "2019-06-13T19:14:00.000Z",
                  "2019-06-13T19:18:00.000Z",
                  "2019-06-13T19:23:00.000Z",
                  "2019-06-13T19:27:00.000Z",
                  "2019-06-13T19:32:00.000Z",
                  "2019-06-13T19:36:00.000Z",
                  "2019-06-13T19:40:00.000Z",
                  "2019-06-13T19:45:00.000Z",
                  "2019-06-13T19:49:00.000Z",
                  "2019-06-13T19:54:00.000Z",
                  "2019-06-13T19:58:00.000Z",
                  "2019-06-13T20:03:00.000Z",
                  "2019-06-13T20:07:00.000Z",
                  "2019-06-13T20:12:00.000Z",
                  "2019-06-13T20:16:00.000Z",
                  "2019-06-13T20:21:00.000Z",
                  "2019-06-13T20:25:00.000Z",
                  "2019-06-13T20:29:00.000Z"
                ],
                "data": [
                  1795.23,
                  1797.55,
                  1797.16,
                  1799.48,
                  1797.55,
                  1796.78,
                  1796.39,
                  1797.16,
                  1796.39,
                  1795.62,
                  1796,
                  1798.32,
                  1796.39,
                  1796.39,
                  1792.91,
                  1796,
                  1796.78,
                  1796.39,
                  1796.39,
                  1796.39,
                  1796,
                  1796.39,
                  1796.78,
                  1796.39,
                  1796,
                  1796.78,
                  1796.39
                ]
              }
            },
            {
              "unit": { "name": "Unit 2", "color": "9FCE63,62AD01", "id": "c3ad31d4-56a6-421e-97de-3cfefe611787" },
              "data": { "timestamps": [], "data": [] }
            }
          ],
          "type": "unit",
          "metric": "RPM",
          "uom": "RPM"
        }
      }
    }
  }
}
