{
  "errors": [
    {
      "message": "Reduce of empty array with no initial value",
      "locations": [{ "line": 2, "column": 9 }],
      "path": ["gaugeChartQuery"],
      "extensions": { "code": "INTERNAL_SERVER_ERROR" }
    }
  ],
  "data": { "gaugeChartQuery": null }
}
